{
  "profiles": {
    "LendFoundry.Tasks.Merchants.SendEmailsOnEnrolledActive": {
      "commandName": "LendFoundry.Tasks.Merchants.SendEmailsOnEnrolledActive",
      "environmentVariables": {
        "ASPNET_ENV": "Development",
        "LOG_FORMAT": "Plain",
        "TASK_MERCHANT_SENDEMAILSONENROLLEDACTIVE_MERCHANT_HOST": "lendingusa.dev.lendfoundry.com",
        "TASK_MERCHANT_SENDEMAILSONENROLLEDACTIVE_MERCHANT_PORT": "5009",
        "TASK_MERCHANT_SENDEMAILSONENROLLEDACTIVE_CONFIGURATION_HOST": "lendingusa.dev.lendfoundry.com",
        "TASK_MERCHANT_SENDEMAILSONENROLLEDACTIVE_CONFIGURATION_PORT": "5008",
        "TASK_MERCHANT_SENDEMAILSONENROLLEDACTIVE_EMAIL_HOST": "lendingusa.dev.lendfoundry.com",
        "TASK_MERCHANT_SENDEMAILSONENROLLEDACTIVE_EMAIL_PORT": "5060",
        "TASK_MERCHANT_SENDEMAILSONENROLLEDACTIVE_EVENT_NAME": "MerchantStatusChanged",
        "TASK_MERCHANT_SENDEMAILSONENROLLEDACTIVE_EVENTHUB_HOST": "lendingusa.dev.lendfoundry.com",
        "TASK_MERCHANT_SENDEMAILSONENROLLEDACTIVE_EVENTHUB_PORT": "5004",
        "TASK_MERCHANT_SENDEMAILSONENROLLEDACTIVE_LINK": "lendingusa.dev.lendfoundry.com:9002",
        "TASK_MERCHANT_SENDEMAILSONENROLLEDACTIVE_BIRDEYELINK": "https://birdeye.com/lendingusa-146810447116577/mobile",
        "TASK_MERCHANT_SENDEMAILSONENROLLEDACTIVE_NATS_URL": "nats://lendingusa.dev.lendfoundry.com:4222",
        "TASK_TENANT": "my-tenant"
      }
    }
  }
}