{
  "profiles": {
    "LendFoundry.Tasks.Applications.Expiry": {
      "commandName": "LendFoundry.Tasks.Applications.Expiry",
      "environmentVariables": {
        "ASPNET_ENV": "Development",
        "LOG_FORMAT": "Plain",
        "TASK_APPLICATIONS_EXPIRY_APPLICATIONFILTER_HOST": "192.168.1.9",
        "TASK_APPLICATIONS_EXPIRY_APPLICATIONFILTER_PORT": "5029",
        "TASK_APPLICATIONS_EXPIRY_CALENDAR_HOST": "192.168.1.9",
        "TASK_APPLICATIONS_EXPIRY_CALENDAR_PORT": "5007",
        "TASK_APPLICATIONS_EXPIRY_CONFIGURATION_HOST": "192.168.1.9",
        "TASK_APPLICATIONS_EXPIRY_CONFIGURATION_PORT": "5008",
        "TASK_APPLICATIONS_EXPIRY_EVENTHUB_HOST": "192.168.1.9",
        "TASK_APPLICATIONS_EXPIRY_EVENTHUB_PORT": "5004",
        "TASK_APPLICATIONS_EXPIRY_NATS_URL": "nats://lendingusa.dev.lendfoundry.com:4222",
        "TASK_APPLICATIONS_EXPIRY_STATUSMANAGEMENT_HOST": "192.168.1.9",
        "TASK_APPLICATIONS_EXPIRY_STATUSMANAGEMENT_PORT": "5043",
        "TASK_TENANT": "my-tenant"
      }
    }
  }
}